# This example takes about 1 minute to run on my machine
# Be sure to specify options -p -f (-g helps a little too)

# The person who started the dancing baby craze has more baseball cards than the person who started the lolcat craze.
# The person who started the rickrolling craze is not Kayleigh.

# Of Kassandra and the one who lives on Minnesota Drive, one started the dancing baby craze and the other has 55 baseball cards.

# The collector who has 55 baseball cards is Cooper.
# The one who lives on Minnesota Drive has more baseball cards than Kassandra.
# The one who lives on Kay Lane started the rickrolling craze.
# The collector who has 33 baseball cards doesn't live on Madison Street.
# Either the one who lives on Kay Lane or the one who lives on Madison Street is Parker.
# The person who started the dancing baby craze is Kassandra.
# The collector who has 53 baseball cards doesn't live on Madison Street and didn't start the rickrolling craze.

# 23 33 53 55
# COO KAS KAY PAR  
# dan exp lol ric 
# Bla Kay Mad Min

~23_dan
~55_lol
~KAY_ric
~KAS_Min
~55_dan
55_KAS | KAS_dan
55_Min | dan_Min
55_COO
~23_Min
~55_KAS
~53_Min | 33_KAS | 23_KAS
~33_Min | 23_KAS
~33_KAS | 53_Min | 55_Min
~53_KAS | 55_Min
ric_Kay
~33_Mad
PAR_Kay | PAR_Mad
KAS_dan
~53_Mad & ~53_ric

# (KAS_dan & 55_Min) | (55_KAS & dan_Min)
# avoid grandchildren -- equivalent to the following 4 rules
# since (A&B)|(C&D) <-> A|(C&D) & B|(C&D)  and A|(C&D) <-> A|C & A|D
KAS_dan|55_KAS
KAS_dan|dan_Min
55_Min|55_KAS
55_Min|dan_Min

~23_COO|~55_COO
~23_KAS|~55_KAS
~23_KAY|~55_KAY
~23_PAR|~55_PAR
~33_COO|~53_COO
~33_KAS|~53_KAS
~33_KAY|~53_KAY
~33_PAR|~53_PAR
~33_COO|~55_COO
~33_KAS|~55_KAS
~33_KAY|~55_KAY
~33_PAR|~55_PAR
~53_COO|~55_COO
~53_KAS|~55_KAS
~53_KAY|~55_KAY
~53_PAR|~55_PAR
~23_dan|~33_dan
~23_exp|~33_exp
~23_lol|~33_lol
~23_ric|~33_ric
~23_dan|~53_dan
~23_exp|~53_exp
~23_lol|~53_lol
~23_ric|~53_ric
~23_dan|~55_dan
~23_exp|~55_exp
~23_lol|~55_lol
~23_ric|~55_ric
~33_dan|~53_dan
~33_exp|~53_exp
~33_lol|~53_lol
~33_ric|~53_ric
~33_dan|~55_dan
~33_exp|~55_exp
~33_lol|~55_lol
~33_ric|~55_ric
~53_dan|~55_dan
~53_exp|~55_exp
~53_lol|~55_lol
~53_ric|~55_ric
~23_Bla|~33_Bla
~23_Kay|~33_Kay
~23_Mad|~33_Mad
~23_Min|~33_Min
~23_Bla|~53_Bla
~23_Kay|~53_Kay
~23_Mad|~53_Mad
~23_Min|~53_Min
~23_Bla|~55_Bla
~23_Kay|~55_Kay
~23_Mad|~55_Mad
~23_Min|~55_Min
~33_Bla|~53_Bla
~33_Kay|~53_Kay
~33_Mad|~53_Mad
~33_Min|~53_Min
~33_Bla|~55_Bla
~33_Kay|~55_Kay
~33_Mad|~55_Mad
~33_Min|~55_Min
~53_Bla|~55_Bla
~53_Kay|~55_Kay
~53_Mad|~55_Mad
~53_Min|~55_Min
~COO_dan|~KAS_dan
~COO_exp|~KAS_exp
~COO_lol|~KAS_lol
~COO_ric|~KAS_ric
~COO_dan|~KAY_dan
~COO_exp|~KAY_exp
~COO_lol|~KAY_lol
~COO_ric|~KAY_ric
~COO_dan|~PAR_dan
~COO_exp|~PAR_exp
~COO_lol|~PAR_lol
~COO_ric|~PAR_ric
~KAS_dan|~KAY_dan
~KAS_exp|~KAY_exp
~KAS_lol|~KAY_lol
~KAS_ric|~KAY_ric
~KAS_dan|~PAR_dan
~KAS_exp|~PAR_exp
~KAS_lol|~PAR_lol
~KAS_ric|~PAR_ric
~KAY_dan|~PAR_dan
~KAY_exp|~PAR_exp
~KAY_lol|~PAR_lol
~KAY_ric|~PAR_ric
~COO_Bla|~KAS_Bla
~COO_Kay|~KAS_Kay
~COO_Mad|~KAS_Mad
~COO_Min|~KAS_Min
~COO_Bla|~KAY_Bla
~COO_Kay|~KAY_Kay
~COO_Mad|~KAY_Mad
~COO_Min|~KAY_Min
~COO_Bla|~PAR_Bla
~COO_Kay|~PAR_Kay
~COO_Mad|~PAR_Mad
~COO_Min|~PAR_Min
~KAS_Bla|~KAY_Bla
~KAS_Kay|~KAY_Kay
~KAS_Mad|~KAY_Mad
~KAS_Min|~KAY_Min
~KAS_Bla|~PAR_Bla
~KAS_Kay|~PAR_Kay
~KAS_Mad|~PAR_Mad
~KAS_Min|~PAR_Min
~KAY_Bla|~PAR_Bla
~KAY_Kay|~PAR_Kay
~KAY_Mad|~PAR_Mad
~KAY_Min|~PAR_Min
~dan_Bla|~exp_Bla
~dan_Kay|~exp_Kay
~dan_Mad|~exp_Mad
~dan_Min|~exp_Min
~dan_Bla|~lol_Bla
~dan_Kay|~lol_Kay
~dan_Mad|~lol_Mad
~dan_Min|~lol_Min
~dan_Bla|~ric_Bla
~dan_Kay|~ric_Kay
~dan_Mad|~ric_Mad
~dan_Min|~ric_Min
~exp_Bla|~lol_Bla
~exp_Kay|~lol_Kay
~exp_Mad|~lol_Mad
~exp_Min|~lol_Min
~exp_Bla|~ric_Bla
~exp_Kay|~ric_Kay
~exp_Mad|~ric_Mad
~exp_Min|~ric_Min
~lol_Bla|~ric_Bla
~lol_Kay|~ric_Kay
~lol_Mad|~ric_Mad
~lol_Min|~ric_Min
~23_COO|~23_KAS
~23_COO|~23_KAY
~23_COO|~23_PAR
~23_KAS|~23_KAY
~23_KAS|~23_PAR
~23_KAY|~23_PAR
~33_COO|~33_KAS
~33_COO|~33_KAY
~33_COO|~33_PAR
~33_KAS|~33_KAY
~33_KAS|~33_PAR
~33_KAY|~33_PAR
~53_COO|~53_KAS
~53_COO|~53_KAY
~53_COO|~53_PAR
~53_KAS|~53_KAY
~53_KAS|~53_PAR
~53_KAY|~53_PAR
~55_COO|~55_KAS
~55_COO|~55_KAY
~55_COO|~55_PAR
~55_KAS|~55_KAY
~55_KAS|~55_PAR
~55_KAY|~55_PAR
~23_dan|~23_exp
~23_dan|~23_lol
~23_dan|~23_ric
~23_exp|~23_lol
~23_exp|~23_ric
~23_lol|~23_ric
~33_dan|~33_exp
~33_dan|~33_lol
~33_dan|~33_ric
~33_exp|~33_lol
~33_exp|~33_ric
~33_lol|~33_ric
~53_dan|~53_exp
~53_dan|~53_lol
~53_dan|~53_ric
~53_exp|~53_lol
~53_exp|~53_ric
~53_lol|~53_ric
~55_dan|~55_exp
~55_dan|~55_lol
~55_dan|~55_ric
~55_exp|~55_lol
~55_exp|~55_ric
~55_lol|~55_ric
~23_Bla|~23_Kay
~23_Bla|~23_Mad
~23_Bla|~23_Min
~23_Kay|~23_Mad
~23_Kay|~23_Min
~23_Mad|~23_Min
~33_Bla|~33_Kay
~33_Bla|~33_Mad
~33_Bla|~33_Min
~33_Kay|~33_Mad
~33_Kay|~33_Min
~33_Mad|~33_Min
~53_Bla|~53_Kay
~53_Bla|~53_Mad
~53_Bla|~53_Min
~53_Kay|~53_Mad
~53_Kay|~53_Min
~53_Mad|~53_Min
~55_Bla|~55_Kay
~55_Bla|~55_Mad
~55_Bla|~55_Min
~55_Kay|~55_Mad
~55_Kay|~55_Min
~55_Mad|~55_Min
~COO_dan|~COO_exp
~COO_dan|~COO_lol
~COO_dan|~COO_ric
~COO_exp|~COO_lol
~COO_exp|~COO_ric
~COO_lol|~COO_ric
~KAS_dan|~KAS_exp
~KAS_dan|~KAS_lol
~KAS_dan|~KAS_ric
~KAS_exp|~KAS_lol
~KAS_exp|~KAS_ric
~KAS_lol|~KAS_ric
~KAY_dan|~KAY_exp
~KAY_dan|~KAY_lol
~KAY_dan|~KAY_ric
~KAY_exp|~KAY_lol
~KAY_exp|~KAY_ric
~KAY_lol|~KAY_ric
~PAR_dan|~PAR_exp
~PAR_dan|~PAR_lol
~PAR_dan|~PAR_ric
~PAR_exp|~PAR_lol
~PAR_exp|~PAR_ric
~PAR_lol|~PAR_ric
~COO_Bla|~COO_Kay
~COO_Bla|~COO_Mad
~COO_Bla|~COO_Min
~COO_Kay|~COO_Mad
~COO_Kay|~COO_Min
~COO_Mad|~COO_Min
~KAS_Bla|~KAS_Kay
~KAS_Bla|~KAS_Mad
~KAS_Bla|~KAS_Min
~KAS_Kay|~KAS_Mad
~KAS_Kay|~KAS_Min
~KAS_Mad|~KAS_Min
~KAY_Bla|~KAY_Kay
~KAY_Bla|~KAY_Mad
~KAY_Bla|~KAY_Min
~KAY_Kay|~KAY_Mad
~KAY_Kay|~KAY_Min
~KAY_Mad|~KAY_Min
~PAR_Bla|~PAR_Kay
~PAR_Bla|~PAR_Mad
~PAR_Bla|~PAR_Min
~PAR_Kay|~PAR_Mad
~PAR_Kay|~PAR_Min
~PAR_Mad|~PAR_Min
~dan_Bla|~dan_Kay
~dan_Bla|~dan_Mad
~dan_Bla|~dan_Min
~dan_Kay|~dan_Mad
~dan_Kay|~dan_Min
~dan_Mad|~dan_Min
~exp_Bla|~exp_Kay
~exp_Bla|~exp_Mad
~exp_Bla|~exp_Min
~exp_Kay|~exp_Mad
~exp_Kay|~exp_Min
~exp_Mad|~exp_Min
~lol_Bla|~lol_Kay
~lol_Bla|~lol_Mad
~lol_Bla|~lol_Min
~lol_Kay|~lol_Mad
~lol_Kay|~lol_Min
~lol_Mad|~lol_Min
~ric_Bla|~ric_Kay
~ric_Bla|~ric_Mad
~ric_Bla|~ric_Min
~ric_Kay|~ric_Mad
~ric_Kay|~ric_Min
~ric_Mad|~ric_Min
~23_dan|~COO_dan|23_COO
~23_exp|~COO_exp|23_COO
~23_lol|~COO_lol|23_COO
~23_ric|~COO_ric|23_COO
~23_dan|~KAS_dan|23_KAS
~23_exp|~KAS_exp|23_KAS
~23_lol|~KAS_lol|23_KAS
~23_ric|~KAS_ric|23_KAS
~23_dan|~KAY_dan|23_KAY
~23_exp|~KAY_exp|23_KAY
~23_lol|~KAY_lol|23_KAY
~23_ric|~KAY_ric|23_KAY
~23_dan|~PAR_dan|23_PAR
~23_exp|~PAR_exp|23_PAR
~23_lol|~PAR_lol|23_PAR
~23_ric|~PAR_ric|23_PAR
~33_dan|~COO_dan|33_COO
~33_exp|~COO_exp|33_COO
~33_lol|~COO_lol|33_COO
~33_ric|~COO_ric|33_COO
~33_dan|~KAS_dan|33_KAS
~33_exp|~KAS_exp|33_KAS
~33_lol|~KAS_lol|33_KAS
~33_ric|~KAS_ric|33_KAS
~33_dan|~KAY_dan|33_KAY
~33_exp|~KAY_exp|33_KAY
~33_lol|~KAY_lol|33_KAY
~33_ric|~KAY_ric|33_KAY
~33_dan|~PAR_dan|33_PAR
~33_exp|~PAR_exp|33_PAR
~33_lol|~PAR_lol|33_PAR
~33_ric|~PAR_ric|33_PAR
~53_dan|~COO_dan|53_COO
~53_exp|~COO_exp|53_COO
~53_lol|~COO_lol|53_COO
~53_ric|~COO_ric|53_COO
~53_dan|~KAS_dan|53_KAS
~53_exp|~KAS_exp|53_KAS
~53_lol|~KAS_lol|53_KAS
~53_ric|~KAS_ric|53_KAS
~53_dan|~KAY_dan|53_KAY
~53_exp|~KAY_exp|53_KAY
~53_lol|~KAY_lol|53_KAY
~53_ric|~KAY_ric|53_KAY
~53_dan|~PAR_dan|53_PAR
~53_exp|~PAR_exp|53_PAR
~53_lol|~PAR_lol|53_PAR
~53_ric|~PAR_ric|53_PAR
~55_dan|~COO_dan|55_COO
~55_exp|~COO_exp|55_COO
~55_lol|~COO_lol|55_COO
~55_ric|~COO_ric|55_COO
~55_dan|~KAS_dan|55_KAS
~55_exp|~KAS_exp|55_KAS
~55_lol|~KAS_lol|55_KAS
~55_ric|~KAS_ric|55_KAS
~55_dan|~KAY_dan|55_KAY
~55_exp|~KAY_exp|55_KAY
~55_lol|~KAY_lol|55_KAY
~55_ric|~KAY_ric|55_KAY
~55_dan|~PAR_dan|55_PAR
~55_exp|~PAR_exp|55_PAR
~55_lol|~PAR_lol|55_PAR
~55_ric|~PAR_ric|55_PAR
~23_Bla|~COO_Bla|23_COO
~23_Kay|~COO_Kay|23_COO
~23_Mad|~COO_Mad|23_COO
~23_Min|~COO_Min|23_COO
~23_Bla|~KAS_Bla|23_KAS
~23_Kay|~KAS_Kay|23_KAS
~23_Mad|~KAS_Mad|23_KAS
~23_Min|~KAS_Min|23_KAS
~23_Bla|~KAY_Bla|23_KAY
~23_Kay|~KAY_Kay|23_KAY
~23_Mad|~KAY_Mad|23_KAY
~23_Min|~KAY_Min|23_KAY
~23_Bla|~PAR_Bla|23_PAR
~23_Kay|~PAR_Kay|23_PAR
~23_Mad|~PAR_Mad|23_PAR
~23_Min|~PAR_Min|23_PAR
~33_Bla|~COO_Bla|33_COO
~33_Kay|~COO_Kay|33_COO
~33_Mad|~COO_Mad|33_COO
~33_Min|~COO_Min|33_COO
~33_Bla|~KAS_Bla|33_KAS
~33_Kay|~KAS_Kay|33_KAS
~33_Mad|~KAS_Mad|33_KAS
~33_Min|~KAS_Min|33_KAS
~33_Bla|~KAY_Bla|33_KAY
~33_Kay|~KAY_Kay|33_KAY
~33_Mad|~KAY_Mad|33_KAY
~33_Min|~KAY_Min|33_KAY
~33_Bla|~PAR_Bla|33_PAR
~33_Kay|~PAR_Kay|33_PAR
~33_Mad|~PAR_Mad|33_PAR
~33_Min|~PAR_Min|33_PAR
~53_Bla|~COO_Bla|53_COO
~53_Kay|~COO_Kay|53_COO
~53_Mad|~COO_Mad|53_COO
~53_Min|~COO_Min|53_COO
~53_Bla|~KAS_Bla|53_KAS
~53_Kay|~KAS_Kay|53_KAS
~53_Mad|~KAS_Mad|53_KAS
~53_Min|~KAS_Min|53_KAS
~53_Bla|~KAY_Bla|53_KAY
~53_Kay|~KAY_Kay|53_KAY
~53_Mad|~KAY_Mad|53_KAY
~53_Min|~KAY_Min|53_KAY
~53_Bla|~PAR_Bla|53_PAR
~53_Kay|~PAR_Kay|53_PAR
~53_Mad|~PAR_Mad|53_PAR
~53_Min|~PAR_Min|53_PAR
~55_Bla|~COO_Bla|55_COO
~55_Kay|~COO_Kay|55_COO
~55_Mad|~COO_Mad|55_COO
~55_Min|~COO_Min|55_COO
~55_Bla|~KAS_Bla|55_KAS
~55_Kay|~KAS_Kay|55_KAS
~55_Mad|~KAS_Mad|55_KAS
~55_Min|~KAS_Min|55_KAS
~55_Bla|~KAY_Bla|55_KAY
~55_Kay|~KAY_Kay|55_KAY
~55_Mad|~KAY_Mad|55_KAY
~55_Min|~KAY_Min|55_KAY
~55_Bla|~PAR_Bla|55_PAR
~55_Kay|~PAR_Kay|55_PAR
~55_Mad|~PAR_Mad|55_PAR
~55_Min|~PAR_Min|55_PAR
~23_Bla|~dan_Bla|23_dan
~23_Kay|~dan_Kay|23_dan
~23_Mad|~dan_Mad|23_dan
~23_Min|~dan_Min|23_dan
~23_Bla|~exp_Bla|23_exp
~23_Kay|~exp_Kay|23_exp
~23_Mad|~exp_Mad|23_exp
~23_Min|~exp_Min|23_exp
~23_Bla|~lol_Bla|23_lol
~23_Kay|~lol_Kay|23_lol
~23_Mad|~lol_Mad|23_lol
~23_Min|~lol_Min|23_lol
~23_Bla|~ric_Bla|23_ric
~23_Kay|~ric_Kay|23_ric
~23_Mad|~ric_Mad|23_ric
~23_Min|~ric_Min|23_ric
~33_Bla|~dan_Bla|33_dan
~33_Kay|~dan_Kay|33_dan
~33_Mad|~dan_Mad|33_dan
~33_Min|~dan_Min|33_dan
~33_Bla|~exp_Bla|33_exp
~33_Kay|~exp_Kay|33_exp
~33_Mad|~exp_Mad|33_exp
~33_Min|~exp_Min|33_exp
~33_Bla|~lol_Bla|33_lol
~33_Kay|~lol_Kay|33_lol
~33_Mad|~lol_Mad|33_lol
~33_Min|~lol_Min|33_lol
~33_Bla|~ric_Bla|33_ric
~33_Kay|~ric_Kay|33_ric
~33_Mad|~ric_Mad|33_ric
~33_Min|~ric_Min|33_ric
~53_Bla|~dan_Bla|53_dan
~53_Kay|~dan_Kay|53_dan
~53_Mad|~dan_Mad|53_dan
~53_Min|~dan_Min|53_dan
~53_Bla|~exp_Bla|53_exp
~53_Kay|~exp_Kay|53_exp
~53_Mad|~exp_Mad|53_exp
~53_Min|~exp_Min|53_exp
~53_Bla|~lol_Bla|53_lol
~53_Kay|~lol_Kay|53_lol
~53_Mad|~lol_Mad|53_lol
~53_Min|~lol_Min|53_lol
~53_Bla|~ric_Bla|53_ric
~53_Kay|~ric_Kay|53_ric
~53_Mad|~ric_Mad|53_ric
~53_Min|~ric_Min|53_ric
~55_Bla|~dan_Bla|55_dan
~55_Kay|~dan_Kay|55_dan
~55_Mad|~dan_Mad|55_dan
~55_Min|~dan_Min|55_dan
~55_Bla|~exp_Bla|55_exp
~55_Kay|~exp_Kay|55_exp
~55_Mad|~exp_Mad|55_exp
~55_Min|~exp_Min|55_exp
~55_Bla|~lol_Bla|55_lol
~55_Kay|~lol_Kay|55_lol
~55_Mad|~lol_Mad|55_lol
~55_Min|~lol_Min|55_lol
~55_Bla|~ric_Bla|55_ric
~55_Kay|~ric_Kay|55_ric
~55_Mad|~ric_Mad|55_ric
~55_Min|~ric_Min|55_ric
~COO_Bla|~dan_Bla|COO_dan
~COO_Kay|~dan_Kay|COO_dan
~COO_Mad|~dan_Mad|COO_dan
~COO_Min|~dan_Min|COO_dan
~COO_Bla|~exp_Bla|COO_exp
~COO_Kay|~exp_Kay|COO_exp
~COO_Mad|~exp_Mad|COO_exp
~COO_Min|~exp_Min|COO_exp
~COO_Bla|~lol_Bla|COO_lol
~COO_Kay|~lol_Kay|COO_lol
~COO_Mad|~lol_Mad|COO_lol
~COO_Min|~lol_Min|COO_lol
~COO_Bla|~ric_Bla|COO_ric
~COO_Kay|~ric_Kay|COO_ric
~COO_Mad|~ric_Mad|COO_ric
~COO_Min|~ric_Min|COO_ric
~KAS_Bla|~dan_Bla|KAS_dan
~KAS_Kay|~dan_Kay|KAS_dan
~KAS_Mad|~dan_Mad|KAS_dan
~KAS_Min|~dan_Min|KAS_dan
~KAS_Bla|~exp_Bla|KAS_exp
~KAS_Kay|~exp_Kay|KAS_exp
~KAS_Mad|~exp_Mad|KAS_exp
~KAS_Min|~exp_Min|KAS_exp
~KAS_Bla|~lol_Bla|KAS_lol
~KAS_Kay|~lol_Kay|KAS_lol
~KAS_Mad|~lol_Mad|KAS_lol
~KAS_Min|~lol_Min|KAS_lol
~KAS_Bla|~ric_Bla|KAS_ric
~KAS_Kay|~ric_Kay|KAS_ric
~KAS_Mad|~ric_Mad|KAS_ric
~KAS_Min|~ric_Min|KAS_ric
~KAY_Bla|~dan_Bla|KAY_dan
~KAY_Kay|~dan_Kay|KAY_dan
~KAY_Mad|~dan_Mad|KAY_dan
~KAY_Min|~dan_Min|KAY_dan
~KAY_Bla|~exp_Bla|KAY_exp
~KAY_Kay|~exp_Kay|KAY_exp
~KAY_Mad|~exp_Mad|KAY_exp
~KAY_Min|~exp_Min|KAY_exp
~KAY_Bla|~lol_Bla|KAY_lol
~KAY_Kay|~lol_Kay|KAY_lol
~KAY_Mad|~lol_Mad|KAY_lol
~KAY_Min|~lol_Min|KAY_lol
~KAY_Bla|~ric_Bla|KAY_ric
~KAY_Kay|~ric_Kay|KAY_ric
~KAY_Mad|~ric_Mad|KAY_ric
~KAY_Min|~ric_Min|KAY_ric
~PAR_Bla|~dan_Bla|PAR_dan
~PAR_Kay|~dan_Kay|PAR_dan
~PAR_Mad|~dan_Mad|PAR_dan
~PAR_Min|~dan_Min|PAR_dan
~PAR_Bla|~exp_Bla|PAR_exp
~PAR_Kay|~exp_Kay|PAR_exp
~PAR_Mad|~exp_Mad|PAR_exp
~PAR_Min|~exp_Min|PAR_exp
~PAR_Bla|~lol_Bla|PAR_lol
~PAR_Kay|~lol_Kay|PAR_lol
~PAR_Mad|~lol_Mad|PAR_lol
~PAR_Min|~lol_Min|PAR_lol
~PAR_Bla|~ric_Bla|PAR_ric
~PAR_Kay|~ric_Kay|PAR_ric
~PAR_Mad|~ric_Mad|PAR_ric
~PAR_Min|~ric_Min|PAR_ric
23_COO|23_KAS|23_KAY|23_PAR
33_COO|33_KAS|33_KAY|33_PAR
53_COO|53_KAS|53_KAY|53_PAR
55_COO|55_KAS|55_KAY|55_PAR
23_dan|23_exp|23_lol|23_ric
33_dan|33_exp|33_lol|33_ric
53_dan|53_exp|53_lol|53_ric
55_dan|55_exp|55_lol|55_ric
23_Bla|23_Kay|23_Mad|23_Min
33_Bla|33_Kay|33_Mad|33_Min
53_Bla|53_Kay|53_Mad|53_Min
55_Bla|55_Kay|55_Mad|55_Min
COO_dan|COO_exp|COO_lol|COO_ric
KAS_dan|KAS_exp|KAS_lol|KAS_ric
KAY_dan|KAY_exp|KAY_lol|KAY_ric
PAR_dan|PAR_exp|PAR_lol|PAR_ric
COO_Bla|COO_Kay|COO_Mad|COO_Min
KAS_Bla|KAS_Kay|KAS_Mad|KAS_Min
KAY_Bla|KAY_Kay|KAY_Mad|KAY_Min
PAR_Bla|PAR_Kay|PAR_Mad|PAR_Min
dan_Bla|dan_Kay|dan_Mad|dan_Min
exp_Bla|exp_Kay|exp_Mad|exp_Min
lol_Bla|lol_Kay|lol_Mad|lol_Min
ric_Bla|ric_Kay|ric_Mad|ric_Min
23_COO|33_COO|53_COO|55_COO
23_KAS|33_KAS|53_KAS|55_KAS
23_KAY|33_KAY|53_KAY|55_KAY
23_PAR|33_PAR|53_PAR|55_PAR
23_dan|33_dan|53_dan|55_dan
23_exp|33_exp|53_exp|55_exp
23_lol|33_lol|53_lol|55_lol
23_ric|33_ric|53_ric|55_ric
23_Bla|33_Bla|53_Bla|55_Bla
23_Kay|33_Kay|53_Kay|55_Kay
23_Mad|33_Mad|53_Mad|55_Mad
23_Min|33_Min|53_Min|55_Min
COO_dan|KAS_dan|KAY_dan|PAR_dan
COO_exp|KAS_exp|KAY_exp|PAR_exp
COO_lol|KAS_lol|KAY_lol|PAR_lol
COO_ric|KAS_ric|KAY_ric|PAR_ric
COO_Bla|KAS_Bla|KAY_Bla|PAR_Bla
COO_Kay|KAS_Kay|KAY_Kay|PAR_Kay
COO_Mad|KAS_Mad|KAY_Mad|PAR_Mad
COO_Min|KAS_Min|KAY_Min|PAR_Min
dan_Bla|exp_Bla|lol_Bla|ric_Bla
dan_Kay|exp_Kay|lol_Kay|ric_Kay
dan_Mad|exp_Mad|lol_Mad|ric_Mad
dan_Min|exp_Min|lol_Min|ric_Min
